…
## Examples

``` r
library(dplyr)
library(ggplot2)

set.seed(1)
dat <- tibble(x = sort(runif(30)), y = sort(runif(30)))
d_max(dat$x[1:10], 0.1, 0.75)
#>  [1] 0.00000000 0.00000000 0.03931553 0.11777962 0.15643374 0.16303781
#>  [7] 0.17252696 0.25462871 0.25726257 0.36976769

dat |>
  mutate(d_x = d_max(x, 0.1, 0.75))
#> # A tibble: 30 × 3
#>         x      y    d_x
#>     <dbl>  <dbl>  <dbl>
#>  1 0.0134 0.0233 0     
#>  2 0.0618 0.0707 0     
#>  3 0.126  0.0995 0.0393
#>  4 0.177  0.108  0.118 
#>  5 0.202  0.186  0.156 
#>  6 0.206  0.245  0.163 
#>  7 0.212  0.316  0.173 
#>  8 0.266  0.407  0.255 
#>  9 0.267  0.411  0.257 
#> 10 0.340  0.438  0.370 
#> # ℹ 20 more rows
…
tibble(x = letters[1:7]) |>
  mutate(d = d_category(x, groups)) |>
  ggplot(aes(x = x, y = d)) +
  geom_bar(stat = "identity") +
  lims(y = 0:1) +
  ylab("Desirability")


# ------------------------------------------------------------------------------
# Apply the same function to many columns at once (dplyr > 1.0)

dat |>
  mutate(across(c(everything()), ~ d_min(., .2, .6), .names = "d_{col}"))
#> # A tibble: 30 × 4
#>         x      y   d_x   d_y
#>     <dbl>  <dbl> <dbl> <dbl>
#>  1 0.0134 0.0233 1     1    
#>  2 0.0618 0.0707 1     1    
#>  3 0.126  0.0995 1     1    
#>  4 0.177  0.108  1     1    
#>  5 0.202  0.186  0.996 1    
#>  6 0.206  0.245  0.985 0.888
#>  7 0.212  0.316  0.970 0.709
#>  8 0.266  0.407  0.836 0.483
#>  9 0.267  0.411  0.832 0.472
#> 10 0.340  0.438  0.649 0.405
#> # ℹ 20 more rows
…
